br\com\projettus\entity\Usuario.class
br\com\projettus\dao\DashboardDAO.class
br\com\projettus\dao\UsuarioDAO.class
br\com\projettus\entity\Membro.class
br\com\projettus\util\EquipeMembros.class
br\com\projettus\dao\AtividadeDAO.class
br\com\projettus\util\Criptografia.class
br\com\projettus\dao\EquipeDAO.class
br\com\projettus\bean\MembroBean.class
br\com\projettus\dao\MembroDAO.class
br\com\projettus\dao\ProjetoDAO.class
br\com\projettus\entity\Projeto.class
br\com\projettus\util\Consultas.class
br\com\projettus\bean\TarefaBean.class
br\com\projettus\entity\Resposta.class
br\com\projettus\bean\AtividadeBean.class
br\com\projettus\entity\Topico.class
br\com\projettus\bean\ProjetoBean.class
br\com\projettus\bean\EquipeBean.class
br\com\projettus\dao\TarefaDAO.class
br\com\projettus\entity\Atividade.class
br\com\projettus\util\HibernateUtil.class
br\com\projettus\entity\Equipe.class
br\com\projettus\entity\Tarefa.class
br\com\projettus\bean\UsuarioBean.class
br\com\projettus\bean\AtividadeViewBean.class
br\com\projettus\bean\DashboardBean.class
br\com\projettus\util\AtivPlus.class
